{
    "inter": {
        "normal": "\/home\/banuaria\/Documents\/RealRentCar\/storage\/fonts\/inter_normal_3ba32a48b7860dfb008d0b1457da683a",
        "bold": "inter_bold_868976cd8a549429e4b1d38e6b1b6bed"
    }
}